ISSS624 (CHIAYS) - In-class Exercise 1
…
ℹ Use `spec()` to retrieve the full column specification for this data.
ℹ Specify the column types or set `show_col_types = FALSE` to quiet this message.

After importing the data file into R, it is important for us to examine if the data file has been imported correctly.

The code chunk below shows list() of Base R instead of glimpse() is used to do the job.

list(odbus0823) 

[[1]]
# A tibble: 5,709,512 × 7
   YEAR_MONTH DAY_TYPE  TIME_PER_HOUR PT_TYPE ORIGIN_PT_CODE DESTINATION_PT_CODE
   <chr>      <chr>             <dbl> <chr>   <chr>          <chr>              
 1 2023-08    WEEKDAY              16 BUS     04168          10051              
 2 2023-08    WEEKENDS…            16 BUS     04168          10051              
 3 2023-08    WEEKENDS…            14 BUS     80119          90079              
 4 2023-08    WEEKDAY              14 BUS     80119          90079              
 5 2023-08    WEEKENDS…            17 BUS     44069          17229              
 6 2023-08    WEEKDAY              17 BUS     44069          17229              
 7 2023-08    WEEKENDS…            17 BUS     20281          20141              
 8 2023-08    WEEKDAY              17 BUS     20281          20141              
 9 2023-08    WEEKDAY               7 BUS     19051          10017              
10 2023-08    WEEKENDS…            17 BUS     11169          04219              
# ℹ 5,709,502 more rows
# ℹ 1 more variable: TOTAL_TRIPS <dbl>
odbus0923 <- read_csv("data/aspatial/origin_destination_bus_202309.csv")

Rows: 5714196 Columns: 7
── Column specification ────────────────────────────────────────────────────────
Delimiter: ","
chr (5): YEAR_MONTH, DAY_TYPE, PT_TYPE, ORIGIN_PT_CODE, DESTINATION_PT_CODE
dbl (2): TIME_PER_HOUR, TOTAL_TRIPS

ℹ Use `spec()` to retrieve the full column specification for this data.
ℹ Specify the column types or set `show_col_types = FALSE` to quiet this message.

list(odbus0923) 

[[1]]
# A tibble: 5,714,196 × 7
   YEAR_MONTH DAY_TYPE  TIME_PER_HOUR PT_TYPE ORIGIN_PT_CODE DESTINATION_PT_CODE
   <chr>      <chr>             <dbl> <chr>   <chr>          <chr>              
 1 2023-09    WEEKENDS…            17 BUS     24499          22221              
 2 2023-09    WEEKENDS…            10 BUS     65239          65159              
 3 2023-09    WEEKDAY              10 BUS     65239          65159              
 4 2023-09    WEEKDAY               7 BUS     23519          23311              
 5 2023-09    WEEKENDS…             7 BUS     23519          23311              
 6 2023-09    WEEKENDS…            11 BUS     52509          42041              
 7 2023-09    WEEKDAY              16 BUS     03151          11161              
 8 2023-09    WEEKDAY              16 BUS     54349          53241              
 9 2023-09    WEEKENDS…            16 BUS     54349          53241              
10 2023-09    WEEKENDS…            20 BUS     43371          14139              
# ℹ 5,714,186 more rows
# ℹ 1 more variable: TOTAL_TRIPS <dbl>
odbus1023 <- read_csv("data/aspatial/origin_destination_bus_202310.csv")

Rows: 5694297 Columns: 7
── Column specification ────────────────────────────────────────────────────────
Delimiter: ","
chr (5): YEAR_MONTH, DAY_TYPE, PT_TYPE, ORIGIN_PT_CODE, DESTINATION_PT_CODE
dbl (2): TIME_PER_HOUR, TOTAL_TRIPS

ℹ Use `spec()` to retrieve the full column specification for this data.
ℹ Specify the column types or set `show_col_types = FALSE` to quiet this message.

list(odbus1023) 

[[1]]
# A tibble: 5,694,297 × 7
   YEAR_MONTH DAY_TYPE  TIME_PER_HOUR PT_TYPE ORIGIN_PT_CODE DESTINATION_PT_CODE
   <chr>      <chr>             <dbl> <chr>   <chr>          <chr>              
 1 2023-10    WEEKENDS…            16 BUS     04168          10051              
 2 2023-10    WEEKDAY              16 BUS     04168          10051              
 3 2023-10    WEEKENDS…            14 BUS     80119          90079              
 4 2023-10    WEEKDAY              14 BUS     80119          90079              
 5 2023-10    WEEKDAY              17 BUS     44069          17229              
 6 2023-10    WEEKENDS…            17 BUS     20281          20141              
 7 2023-10    WEEKDAY              17 BUS     20281          20141              
 8 2023-10    WEEKDAY               7 BUS     19051          10017              
 9 2023-10    WEEKENDS…            14 BUS     81049          70161              
10 2023-10    WEEKDAY              14 BUS     81049          70161              
# ℹ 5,694,287 more rows
# ℹ 1 more variable: TOTAL_TRIPS <dbl>
